<?xml version="1.0" encoding="UTF-8" standalone="no"?>
<!-- Created with Inkscape (http://www.inkscape.org/) -->

<svg
   xmlns:svg="http://www.w3.org/2000/svg"
   xmlns="http://www.w3.org/2000/svg"
   version="1.1"
   width="155.72368pt"
   height="68.312157pt"
   viewBox="-7.44135 -34.15608 155.72368 68.31216"
   id="svg3381">
  <defs
     id="defs3473" />
  <g
     transform="scale(1,-1)"
     id="g3383">
    <g
       id="g3385">
      <g
         id="g3387"
         style="stroke:#000000">
        <g
           id="g3389"
           style="fill:#000000">
          <g
             id="g3391"
             style="stroke-width:0.4pt">
            <g
               id="g3393">
              <g
                 id="g3395"
                 style="stroke-width:0.8pt">
                <g
                   id="g3397"
                   style="stroke-linejoin:round">
                  <g
                     id="g3399">
                    <g
                       id="g3401">
                      <g
                         transform="translate(-3.72179,-2.9329)"
                         id="g3403">
                        <g
                           id="g3405"
                           style="fill:#000000">
                          <text
                             transform="matrix(1,0,0,-1,3.72179,0)"
                             id="text3407"
                             style="font-size:12px;text-anchor:middle;stroke:none">T</text>
                        </g>
                      </g>
                    </g>
                  </g>
                  <g
                     id="g3409">
                    <g
                       id="g3411">
                      <g
                         transform="translate(10.42238,-2.9329)"
                         id="g3413">
                        <g
                           id="g3415"
                           style="fill:#000000">
                          <text
                             transform="matrix(1,0,0,-1,3.80399,0)"
                             id="text3417"
                             style="font-size:12px;text-anchor:middle;stroke:none">
                            <tspan
                               id="tspan3419"
                               style="font-style:italic;">p</tspan>
                          </text>
                        </g>
                      </g>
                    </g>
                  </g>
                  <g
                     id="g3421">
                    <g
                       id="g3423">
                      <g
                         transform="translate(23.30823,-2.9329)"
                         id="g3425">
                        <g
                           id="g3427"
                           style="fill:#000000">
                          <text
                             transform="matrix(1,0,0,-1,3.72179,0)"
                             id="text3429"
                             style="font-size:12px;text-anchor:middle;stroke:none">F</text>
                        </g>
                      </g>
                    </g>
                  </g>
                  <g
                     id="g3431">
                    <g
                       id="g3433">
                      <g
                         transform="translate(110.08919,-2.9329)"
                         id="g3435">
                        <g
                           id="g3437"
                           style="fill:#000000">
                          <text
                             transform="matrix(1,0,0,-1,3.72179,0)"
                             id="text3439"
                             style="font-size:12px;text-anchor:middle;stroke:none">T</text>
                        </g>
                      </g>
                    </g>
                  </g>
                  <g
                     id="g3441">
                    <g
                       id="g3443">
                      <g
                         transform="translate(124.51535,-2.9329)"
                         id="g3445">
                        <g
                           id="g3447"
                           style="fill:#000000">
                          <text
                             transform="matrix(1,0,0,-1,3.52199,0)"
                             id="text3449"
                             style="font-size:12px;text-anchor:middle;stroke:none">
                            <tspan
                               id="tspan3451"
                               style="font-style:italic;">q</tspan>
                          </text>
                        </g>
                      </g>
                    </g>
                  </g>
                  <g
                     id="g3453">
                    <g
                       id="g3455">
                      <g
                         transform="translate(137.1192,-2.9329)"
                         id="g3457">
                        <g
                           id="g3459"
                           style="fill:#000000">
                          <text
                             transform="matrix(1,0,0,-1,3.72179,0)"
                             id="text3461"
                             style="font-size:12px;text-anchor:middle;stroke:none">F</text>
                        </g>
                      </g>
                    </g>
                  </g>
                  <path
                     d="M -3.40108,9.34445 C 0.72424,20.67848 11.2742,28.06563 23.33588,28.06563 l 71.13185,0 c 3.15799,0 5.69046,2.53247 5.69046,5.69046 0,-3.15799 2.53247,-5.69046 5.69046,-5.69046 l 8.5359,0 c 12.06168,0 22.61164,-7.38715 26.73695,-18.72118"
                     id="path3463"
                     style="fill:none" />
                  <path
                     d="m 0,9.34445 c 3.76965,5.3837 9.74232,8.49298 16.31491,8.49298 l 28.45249,3.8e-4 c 3.15798,0 5.69046,2.53248 5.69046,5.69046 0,-3.15798 2.53247,-5.69046 5.69046,-5.69046 l 40.60211,0 c 6.57258,0 12.54525,-3.10928 16.31491,-8.49298"
                     id="path3465"
                     style="fill:none" />
                  <path
                     d="m 140.84099,-9.34445 c -4.12532,-11.33403 -14.67528,-18.72118 -26.73696,-18.72118 l -8.5359,0 c -3.15799,0 -5.69046,-2.53247 -5.69046,-5.69046 0,3.15799 -2.53247,5.69046 -5.69046,5.69046 l -42.67911,0 c -12.06167,0 -22.61163,7.38715 -26.73695,18.72118"
                     id="path3467"
                     style="fill:none" />
                  <path
                     d="m 27.03001,-9.34445 c 3.76966,-5.3837 9.74233,-8.49298 16.31491,-8.49298 l 28.45249,-3.8e-4 c 3.15799,0 5.69046,-2.53248 5.69046,-5.69046 0,3.15798 2.53247,5.69046 5.69046,5.69046 l 14.22637,0 c 6.57258,0 12.54525,3.10928 16.3149,8.49298"
                     id="path3469"
                     style="fill:none" />
                </g>
              </g>
            </g>
          </g>
        </g>
      </g>
    </g>
  </g>
</svg>
