<?xml version="1.0" encoding="UTF-8" standalone="no"?>
<!-- Created with Inkscape (http://www.inkscape.org/) -->

<svg
   xmlns:svg="http://www.w3.org/2000/svg"
   xmlns="http://www.w3.org/2000/svg"
   version="1.1"
   width="157.47578pt"
   height="68.312157pt"
   viewBox="-9.19345 -34.15608 157.47578 68.31216"
   id="svg3125">
  <defs
     id="defs3217" />
  <g
     transform="scale(1,-1)"
     id="g3127">
    <g
       id="g3129">
      <g
         id="g3131"
         style="stroke:#000000">
        <g
           id="g3133"
           style="fill:#000000">
          <g
             id="g3135"
             style="stroke-width:0.4pt">
            <g
               id="g3137">
              <g
                 id="g3139"
                 style="stroke-width:0.8pt">
                <g
                   id="g3141"
                   style="stroke-linejoin:round">
                  <g
                     id="g3143">
                    <g
                       id="g3145">
                      <g
                         transform="translate(-5.47389,-2.9329)"
                         id="g3147">
                        <g
                           id="g3149"
                           style="fill:#000000">
                          <text
                             transform="matrix(1,0,0,-1,5.47389,0)"
                             id="text3151"
                             style="font-size:12px;text-anchor:middle;stroke:none">W</text>
                        </g>
                      </g>
                    </g>
                  </g>
                  <g
                     id="g3153">
                    <g
                       id="g3155">
                      <g
                         transform="translate(10.42238,-2.9329)"
                         id="g3157">
                        <g
                           id="g3159"
                           style="fill:#000000">
                          <text
                             transform="matrix(1,0,0,-1,3.80399,0)"
                             id="text3161"
                             style="font-size:12px;text-anchor:middle;stroke:none">
                            <tspan
                               id="tspan3163"
                               style="font-style:italic;">p</tspan>
                          </text>
                        </g>
                      </g>
                    </g>
                  </g>
                  <g
                     id="g3165">
                    <g
                       id="g3167">
                      <g
                         transform="translate(23.30823,-2.9329)"
                         id="g3169">
                        <g
                           id="g3171"
                           style="fill:#000000">
                          <text
                             transform="matrix(1,0,0,-1,3.72179,0)"
                             id="text3173"
                             style="font-size:12px;text-anchor:middle;stroke:none">F</text>
                        </g>
                      </g>
                    </g>
                  </g>
                  <g
                     id="g3175">
                    <g
                       id="g3177">
                      <g
                         transform="translate(108.33708,-2.9329)"
                         id="g3179">
                        <g
                           id="g3181"
                           style="fill:#000000">
                          <text
                             transform="matrix(1,0,0,-1,5.47389,0)"
                             id="text3183"
                             style="font-size:12px;text-anchor:middle;stroke:none">W</text>
                        </g>
                      </g>
                    </g>
                  </g>
                  <g
                     id="g3185">
                    <g
                       id="g3187">
                      <g
                         transform="translate(124.51535,-2.9329)"
                         id="g3189">
                        <g
                           id="g3191"
                           style="fill:#000000">
                          <text
                             transform="matrix(1,0,0,-1,3.52199,0)"
                             id="text3193"
                             style="font-size:12px;text-anchor:middle;stroke:none">
                            <tspan
                               id="tspan3195"
                               style="font-style:italic;">q</tspan>
                          </text>
                        </g>
                      </g>
                    </g>
                  </g>
                  <g
                     id="g3197">
                    <g
                       id="g3199">
                      <g
                         transform="translate(137.1192,-2.9329)"
                         id="g3201">
                        <g
                           id="g3203"
                           style="fill:#000000">
                          <text
                             transform="matrix(1,0,0,-1,3.72179,0)"
                             id="text3205"
                             style="font-size:12px;text-anchor:middle;stroke:none">F</text>
                        </g>
                      </g>
                    </g>
                  </g>
                  <path
                     d="M -3.40108,9.34445 C 0.72424,20.67848 11.2742,28.06563 23.33588,28.06563 l 71.13185,0 c 3.15799,0 5.69046,2.53247 5.69046,5.69046 0,-3.15799 2.53247,-5.69046 5.69046,-5.69046 l 8.5359,0 c 12.06168,0 22.61164,-7.38715 26.73695,-18.72118"
                     id="path3207"
                     style="fill:none" />
                  <path
                     d="m 0,9.34445 c 3.76965,5.3837 9.74232,8.49298 16.31491,8.49298 l 28.45249,3.8e-4 c 3.15798,0 5.69046,2.53248 5.69046,5.69046 0,-3.15798 2.53247,-5.69046 5.69046,-5.69046 l 40.60211,0 c 6.57258,0 12.54525,-3.10928 16.31491,-8.49298"
                     id="path3209"
                     style="fill:none" />
                  <path
                     d="m 140.84099,-9.34445 c -4.12532,-11.33403 -14.67528,-18.72118 -26.73696,-18.72118 l -8.5359,0 c -3.15799,0 -5.69046,-2.53247 -5.69046,-5.69046 0,3.15799 -2.53247,5.69046 -5.69046,5.69046 l -42.67911,0 c -12.06167,0 -22.61163,7.38715 -26.73695,18.72118"
                     id="path3211"
                     style="fill:none" />
                  <path
                     d="m 27.03001,-9.34445 c 3.76966,-5.3837 9.74233,-8.49298 16.31491,-8.49298 l 28.45249,-3.8e-4 c 3.15799,0 5.69046,-2.53248 5.69046,-5.69046 0,3.15798 2.53247,5.69046 5.69046,5.69046 l 14.22637,0 c 6.57258,0 12.54525,3.10928 16.3149,8.49298"
                     id="path3213"
                     style="fill:none" />
                </g>
              </g>
            </g>
          </g>
        </g>
      </g>
    </g>
  </g>
</svg>
