<?xml version="1.0" encoding="UTF-8" standalone="no"?>
<!-- Created with Inkscape (http://www.inkscape.org/) -->

<svg
   xmlns:svg="http://www.w3.org/2000/svg"
   xmlns="http://www.w3.org/2000/svg"
   version="1.1"
   width="157.47578pt"
   height="115.17223pt"
   viewBox="-9.19345 -62.14438 157.47578 115.17223"
   id="svg5628">
  <defs
     id="defs5744" />
  <g
     transform="matrix(1,0,0,-1,0,-9.11653)"
     id="g5630">
    <g
       id="g5632">
      <g
         id="g5634"
         style="stroke:#000000">
        <g
           id="g5636"
           style="fill:#000000">
          <g
             id="g5638"
             style="stroke-width:0.4pt">
            <g
               id="g5640">
              <g
                 id="g5642"
                 style="stroke-width:0.8pt">
                <g
                   id="g5644"
                   style="stroke-linejoin:round">
                  <g
                     id="g5646">
                    <g
                       id="g5648">
                      <g
                         transform="translate(-5.47389,-2.76791)"
                         id="g5650">
                        <g
                           id="g5652"
                           style="fill:#000000">
                          <text
                             transform="matrix(1,0,0,-1,5.47389,0)"
                             id="text5654"
                             style="font-size:12px;text-anchor:middle;stroke:none">W</text>
                        </g>
                      </g>
                    </g>
                  </g>
                  <g
                     id="g5656">
                    <g
                       id="g5658">
                      <g
                         transform="translate(11.45438,-2.76791)"
                         id="g5660">
                        <g
                           id="g5662"
                           style="fill:#000000">
                          <text
                             transform="matrix(1,0,0,-1,2.77199,0)"
                             id="text5664"
                             style="font-size:12px;text-anchor:middle;stroke:none">
                            <tspan
                               id="tspan5666"
                               style="font-style:italic;">ξ</tspan>
                          </text>
                        </g>
                      </g>
                    </g>
                  </g>
                  <g
                     id="g5668">
                    <g
                       id="g5670">
                      <g
                         transform="translate(23.30823,-2.76791)"
                         id="g5672">
                        <g
                           id="g5674"
                           style="fill:#000000">
                          <text
                             transform="matrix(1,0,0,-1,3.72179,0)"
                             id="text5676"
                             style="font-size:12px;text-anchor:middle;stroke:none">F</text>
                        </g>
                      </g>
                    </g>
                  </g>
                  <g
                     id="g5678">
                    <g
                       id="g5680">
                      <g
                         transform="translate(108.33708,-2.76791)"
                         id="g5682">
                        <g
                           id="g5684"
                           style="fill:#000000">
                          <text
                             transform="matrix(1,0,0,-1,5.47389,0)"
                             id="text5686"
                             style="font-size:12px;text-anchor:middle;stroke:none">W</text>
                        </g>
                      </g>
                    </g>
                  </g>
                  <g
                     id="g5688">
                    <g
                       id="g5690">
                      <g
                         transform="translate(124.91734,-2.76791)"
                         id="g5692">
                        <g
                           id="g5694"
                           style="fill:#000000">
                          <text
                             transform="matrix(1,0,0,-1,3.12,0)"
                             id="text5696"
                             style="font-size:12px;text-anchor:middle;stroke:none">
                            <tspan
                               id="tspan5698"
                               style="font-style:italic;">η</tspan>
                          </text>
                        </g>
                      </g>
                    </g>
                  </g>
                  <g
                     id="g5700">
                    <g
                       id="g5702">
                      <g
                         transform="translate(137.1192,-2.9329)"
                         id="g5704">
                        <g
                           id="g5706"
                           style="fill:#000000">
                          <text
                             transform="matrix(1,0,0,-1,3.72179,0)"
                             id="text5708"
                             style="font-size:12px;text-anchor:middle;stroke:none">F</text>
                        </g>
                      </g>
                    </g>
                  </g>
                  <path
                     d="m -3.46114,-9.50946 c 4.12532,-11.33403 14.67528,-18.72118 26.73696,-18.72118 l 56.90548,0 c 3.158,0 5.69047,-2.53246 5.69047,-5.69046 l 0,-14.22636 m 0,14.22636 c 0,3.158 2.53247,5.69046 5.69046,5.69046 l 22.76227,0 c 12.06167,0 22.61163,7.38715 26.73695,18.72118"
                     id="path5710"
                     style="fill:none" />
                  <g
                     id="g5712" />
                  <g
                     id="g5714">
                    <g
                       id="g5716">
                      <g
                         transform="translate(79.15355,-58.42482)"
                         id="g5718">
                        <g
                           id="g5720"
                           style="fill:#000000">
                          <text
                             transform="matrix(1,0,0,-1,6.71822,0)"
                             id="text5722"
                             style="font-size:12px;text-anchor:middle;stroke:none"> F</text>
                        </g>
                      </g>
                    </g>
                  </g>
                  <path
                     d="m 0,-9.50946 c 3.76965,-5.3837 9.74232,-8.49298 16.31491,-8.49298 l 28.45249,-3.8e-4 c 3.15798,0 5.69046,-2.53248 5.69046,-5.69046 l 5.69046,62.59594 m -5.69046,-62.59594 c 0,3.15798 2.53247,5.69046 5.69046,5.69046 l 40.60211,0 c 6.57258,0 12.54525,3.10928 16.31491,8.49298"
                     id="path5724"
                     style="fill:none" />
                  <g
                     id="g5726" />
                  <g
                     id="g5728">
                    <g
                       id="g5730">
                      <g
                         transform="translate(50.67442,41.15047)"
                         id="g5732">
                        <g
                           id="g5734"
                           style="fill:#000000">
                          <text
                             transform="matrix(1,0,0,-1,5.47389,0)"
                             id="text5736"
                             style="font-size:12px;text-anchor:middle;stroke:none">W</text>
                        </g>
                      </g>
                    </g>
                  </g>
                  <path
                     d="m 140.84099,9.34445 c -4.12532,11.33403 -14.67528,18.72118 -26.73696,18.72118 l -11.38092,0 c -3.15799,0 -5.69046,2.53247 -5.69046,5.69046 l -3.69899,-85.35823 m 3.69899,85.35823 c 0,-3.15799 -2.53247,-5.69046 -5.69045,-5.69046 l -39.83367,0 c -12.06168,0 -22.61163,-7.38715 -26.73695,-18.72118"
                     id="path5738"
                     style="fill:none" />
                  <path
                     d="m 27.03001,9.50946 c 3.76966,5.3837 9.74233,8.49298 16.31491,8.49298 l 19.91657,3.8e-4 c 3.15799,0 5.69046,2.53248 5.69046,5.69046 L 81.18642,-53.12903 M 68.95195,23.69328 c 0,-3.15798 2.53247,-5.69046 5.69046,-5.69046 l 22.76227,0 c 6.57258,0 12.54526,-3.10928 16.31491,-8.49298"
                     id="path5740"
                     style="fill:none" />
                </g>
              </g>
            </g>
          </g>
        </g>
      </g>
    </g>
  </g>
</svg>
